{
  "restartable": "rs",
  "ignore": [
    ".git",
    "node_modules/**/node_modules",
    "dist"
  ],
  "verbose": true,
  "execMap": {
    "js": "node"
  },
  "events": {
    "restart": "osascript -e 'display notification \"App restarted due to:\n'$FILENAME'\" with title \"nodemon\"'"
  },
  "watch": [
    "server"
  ],
  "env": {
    "NODE_ENV": "development"
  },
  "ext": "js json"
}